<?xml version="1.0" encoding="UTF-8" standalone="no"?>
<!-- Created with Inkscape (http://www.inkscape.org/) -->

<svg
   xmlns:dc="http://purl.org/dc/elements/1.1/"
   xmlns:cc="http://creativecommons.org/ns#"
   xmlns:rdf="http://www.w3.org/1999/02/22-rdf-syntax-ns#"
   xmlns:svg="http://www.w3.org/2000/svg"
   xmlns="http://www.w3.org/2000/svg"
   xmlns:sodipodi="http://sodipodi.sourceforge.net/DTD/sodipodi-0.dtd"
   xmlns:inkscape="http://www.inkscape.org/namespaces/inkscape"
   width="61.663441mm"
   height="57.433655mm"
   viewBox="0 0 61.663441 57.433655"
   version="1.1"
   id="svg8"
   inkscape:version="0.92.4 (5da689c313, 2019-01-14)"
   sodipodi:docname="forkme.svg">
  <defs
     id="defs2">
    <filter
       inkscape:collect="always"
       style="color-interpolation-filters:sRGB"
       id="filter4976"
       x="-0.18840002"
       width="1.3767999"
       y="-0.18839999"
       height="1.3767999">
      <feGaussianBlur
         inkscape:collect="always"
         stdDeviation="4.0731911"
         id="feGaussianBlur4978" />
    </filter>
    <clipPath
       clipPathUnits="userSpaceOnUse"
       id="clipPath4997">
      <rect
         style="opacity:1;fill:#000000;fill-opacity:1;stroke:none;stroke-width:0.58046508;stroke-linecap:square;stroke-linejoin:round;stroke-miterlimit:4;stroke-dasharray:none;stroke-opacity:1;paint-order:fill markers stroke"
         id="rect4999"
         width="64.427521"
         height="57.433655"
         x="-10.428515"
         y="22.22426" />
    </clipPath>
  </defs>
  <sodipodi:namedview
     id="base"
     pagecolor="#ffffff"
     bordercolor="#666666"
     borderopacity="1.0"
     inkscape:pageopacity="0.0"
     inkscape:pageshadow="2"
     inkscape:zoom="2"
     inkscape:cx="144.72571"
     inkscape:cy="93.570261"
     inkscape:document-units="mm"
     inkscape:current-layer="layer1"
     showgrid="false"
     showguides="true"
     inkscape:snap-bbox="true"
     inkscape:snap-bbox-midpoints="true"
     inkscape:guide-bbox="true"
     inkscape:snap-global="true"
     inkscape:lockguides="false"
     inkscape:window-width="1366"
     inkscape:window-height="688"
     inkscape:window-x="0"
     inkscape:window-y="27"
     inkscape:window-maximized="1"
     fit-margin-top="0"
     fit-margin-left="0"
     fit-margin-right="0"
     fit-margin-bottom="0">
    <sodipodi:guide
       position="9.7756588,57.433655"
       orientation="0,1"
       id="guide4533"
       inkscape:locked="false" />
    <sodipodi:guide
       position="68.322833,12.205265"
       orientation="0,1"
       id="guide4535"
       inkscape:locked="false" />
    <sodipodi:guide
       position="34.286725,33.175605"
       orientation="0.70710678,0.70710678"
       id="guide4537"
       inkscape:locked="false"
       inkscape:label=""
       inkscape:color="rgb(0,0,255)" />
    <sodipodi:guide
       position="16.435053,64.093045"
       orientation="0.70710678,0.70710678"
       id="guide4539"
       inkscape:locked="false"
       inkscape:label=""
       inkscape:color="rgb(0,0,255)" />
    <sodipodi:guide
       position="61.663437,5.5458746"
       orientation="1,0"
       id="guide4541"
       inkscape:locked="false" />
    <sodipodi:guide
       position="53.355209,12.205275"
       orientation="1,0"
       id="guide4545"
       inkscape:locked="false" />
    <sodipodi:guide
       position="9.2744594,57.433665"
       orientation="1,0"
       id="guide4550"
       inkscape:locked="false" />
    <sodipodi:guide
       position="61.663436,5.0270846"
       orientation="0,1"
       id="guide4552"
       inkscape:locked="false" />
    <sodipodi:guide
       position="24.937797,57.492815"
       orientation="1,0"
       id="guide4569"
       inkscape:locked="false" />
    <sodipodi:guide
       position="23.632451,57.369825"
       orientation="1,0"
       id="guide4571"
       inkscape:locked="false" />
    <sodipodi:guide
       position="61.663437,20.698165"
       orientation="0,1"
       id="guide4573"
       inkscape:locked="false" />
    <sodipodi:guide
       position="61.663436,19.446565"
       orientation="0,1"
       id="guide4575"
       inkscape:locked="false" />
  </sodipodi:namedview>
  <metadata
     id="metadata5">
    <rdf:RDF>
      <cc:Work
         rdf:about="">
        <dc:format>image/svg+xml</dc:format>
        <dc:type
           rdf:resource="http://purl.org/dc/dcmitype/StillImage" />
        <dc:title></dc:title>
      </cc:Work>
    </rdf:RDF>
  </metadata>
  <g
     inkscape:label="Layer 1"
     inkscape:groupmode="layer"
     id="layer1"
     transform="translate(7.6644331,-22.22426)">
    <path
       style="opacity:0.34299999;fill:#000000;fill-opacity:1;stroke:none;stroke-width:0.31324464;stroke-linecap:square;stroke-linejoin:round;stroke-miterlimit:4;stroke-dasharray:none;stroke-opacity:1;paint-order:fill markers stroke;filter:url(#filter4976)"
       d="m 15.430009,22.224261 38.568996,38.568991 2e-6,13.318797 L 2.1112257,22.22427 Z"
       id="rect4518-6"
       inkscape:connector-curvature="0"
       sodipodi:nodetypes="ccccc"
       clip-path="url(#clipPath4997)" />
    <path
       style="opacity:1;fill:#3051bf;fill-opacity:1;stroke:none;stroke-width:0.31324464;stroke-linecap:square;stroke-linejoin:round;stroke-miterlimit:4;stroke-dasharray:none;stroke-opacity:1;paint-order:fill markers stroke"
       d="m 15.43001,22.224261 38.568994,38.568993 2e-6,13.318796 L 2.1112257,22.22427 Z"
       id="rect4518"
       inkscape:connector-curvature="0"
       sodipodi:nodetypes="ccccc" />
    <text
       xml:space="preserve"
       style="font-style:normal;font-weight:normal;font-size:5.5643239px;line-height:1.25;font-family:sans-serif;letter-spacing:0px;word-spacing:0px;fill:#ffffff;fill-opacity:1;stroke:none;stroke-width:0.69554049"
       x="27.559832"
       y="11.587562"
       id="text4530"
       transform="rotate(45)"><tspan
         sodipodi:role="line"
         id="tspan4528"
         x="27.559832"
         y="11.587562"
         style="fill:#ffffff;stroke-width:0.69554049">Fork me on GitSCH</tspan></text>
    <path
       style="opacity:1;fill:#3051bf;fill-opacity:1;stroke:none;stroke-width:0.3960776;stroke-linecap:square;stroke-linejoin:round;stroke-miterlimit:4;stroke-dasharray:none;stroke-opacity:1;paint-order:fill markers stroke"
       d="m 1.6100262,22.224261 52.3889778,52.40657 -0.0024,1.235438 L 0.29353871,22.224261 Z"
       id="rect4543"
       inkscape:connector-curvature="0"
       sodipodi:nodetypes="ccccc" />
    <path
       style="opacity:1;fill:#3051bf;fill-opacity:1;stroke:none;stroke-width:0.3960776;stroke-linecap:square;stroke-linejoin:round;stroke-miterlimit:4;stroke-dasharray:none;stroke-opacity:1;paint-order:fill markers stroke"
       d="m 17.273364,22.224261 36.72564,36.73549 v 1.2516 L 15.968018,22.224261 Z"
       id="rect4543-3"
       inkscape:connector-curvature="0"
       sodipodi:nodetypes="ccccc" />
  </g>
</svg>
